name,value
Dhyd_Bungy,227
Stalker3T,372
Dbuz_BuT6,387
Tom1,410
Helitron,564
Dwil_Mar,610
INE-1,611
Dbuz_BuT5,669
Dvir_Helena,691
Dbuz_Kepler,7220
Dbuz_ISBu,726
BS4,754
Q-element,759
Dbuz_BuT1,769
Dbuz_BuT3,795
Penelope,804
Dsub_SGM,823
Dvir_Dv,845
Dwil_Vege,884
mariner2,912
Dfun_Isfun-1,928
Dkoe_Gandalf,979
Dbuz_ISBu3,993
Bari2,1064
FB,1106
G7,1192
Dmau_mariner,1286
Helena,1317
hopper,1435
Dbuz_BuT4,1447
Dbuz_INE-1,1467
Dbuz_Newton,1510
Osvaldo,1543
hopper2,1593
Tc1-2,1644
HB,1653
Dhet_Uhu,1658
Tc1,1666
Ddip_Bari1,1677
Bari1,1728
Dsub_GEM,1730
Dvir_Paris,1730
S2,1735
S-element,1736
Tc3,1743
Dtak_R1A2,1753
Dnet_R1A,1757
Dhyd_Minos,1773
BS3,1790
looper1,1881
Dnet_R1B,2038
G6,2042
pogo,2121
transib1,2167
Dbuz_Galileo,2304
frogger,2483
Dvir_Tel,2485
transib4,2656
Dbuz_BuT2,2775
Doc4-element,2791
G5A,2841
transib2,2844
transib3,2883
P-element,2907
Dbif_P-element_M,2935
hobo,2959
Dbif_P-element_O,2986
G2,3102
invader4,3105
Dmir_TRIM,3111
Fw3,3132
R1-2,3216
Damb_P-element_T,3329
1360,3409
jockey2,3428
Dmir_TRAM,3452
R2-element,3607
Dmer_R1A3,3772
G4,3856
Fw2,3961
invader1,4032
invader5,4038
Dvir_Penelope,4158
Dmir_worf,4174
Juan,4236
aurora-element,4263
G-element,4346
NOF,4347
gypsy11,4428
Cr1a,4470
Dm88,4558
G3,4605
Dpse_mini-me,4622
1731,4648
Porto1,4682
F-element,4708
Doc,4725
Doc3-element,4740
X-element,4740
Doc2-element,4789
G5,4856
invader6,4885
diver2,4917
Dmir_spock,4952
gypsy8,4955
jockey,5020
flea,5034
Rt1a,5108
invader2,5124
BS,5142
copia,5143
Rt1b,5171
Transpac,5249
gypsy9,5349
R1A1-element,5356
I-element,5371
Dtei_I-element,5386
Ivk,5402
Rt1c,5443
baggins,5453
micropia,5461
invader3,5484
gypsy7,5486
mdg3,5519
Dsub_bilbo,5540
Dyak_HeT-A,5691
gypsy10,6006
HeT-A,6083
diver,6112
3S18,6126
Burdock,6411
McClintock,6450
Dvir_Uvir,6564
Dvir_Het-A,6610
Dsim_ninja,6644
gypsy2,6841
gypsy4,6852
Dvir_Tv1,6868
gypsy3,6973
297,6995
Dana_Tom,7060
HMS-Beagle,7062
HMS-Beagle2,7220
Stalker,7256
rover,7318
Tabor,7345
Stalker4,7359
gypsy5,7369
Quasimodo,7387
accord,7404
blood,7410
gtwin,7411
Idefix,7411
17.6,7439
Circe,7450
gypsy,7469
mdg1,7480
opus,7521
springer,7546
412,7567
rooA,7621
accord2,7650
Stalker2,7672
Dsil_Loa,7779
gypsy6,7826
ZAM,8435
Dyak_TART,8444
Dvir_TART,8500
GATE,8507
Tirant,8526
Max-element,8556
Dbuz_Osvaldo,9045
roo,9092
gypsy12,10218
TAHRE,10463
Dvir_Ulysses,10653
TART-B,10654
TART-C,11124
TART-A,13424
